{
  "project_info": {
    "project_number": "96178453537",
    "project_id": "panet-jaladores",
    "storage_bucket": "panet-jaladores.appspot.com"
  },
  "client": [
    {
      "client_info": {
        "mobilesdk_app_id": "1:96178453537:android:dc36544b0fea05db26b760",
        "android_client_info": {
          "package_name": "com.armandocamposf.PanetJaladores"
        }
      },
      "oauth_client": [],
      "api_key": [
        {
          "current_key": "AIzaSyBLiHgwlRG9PtwG5l__BkJ1gv-Pe61nhr0"
        }
      ],
      "services": {
        "appinvite_service": {
          "other_platform_oauth_client": []
        }
      }
    },
    {
      "client_info": {
        "mobilesdk_app_id": "1:96178453537:android:982a4cbfe3a78dfa26b760",
        "android_client_info": {
          "package_name": "com.armandocamposf.panetduenocuenta"
        }
      },
      "oauth_client": [],
      "api_key": [
        {
          "current_key": "AIzaSyBLiHgwlRG9PtwG5l__BkJ1gv-Pe61nhr0"
        }
      ],
      "services": {
        "appinvite_service": {
          "other_platform_oauth_client": []
        }
      }
    }
  ],
  "configuration_version": "1"
}